[{
  "file": "/home/joshua/software-dev/beginning-cpp-programming/Section8/Challenge/main.cpp",
  "directory": "/home/joshua/software-dev/beginning-cpp-programming/Section8/Challenge",
  "command": "clang  -c /home/joshua/software-dev/beginning-cpp-programming/Section8/Challenge/main.cpp -o /home/joshua/software-dev/beginning-cpp-programming/Section8/Challenge/main.cpp.o  -I/usr/include/c++/9.1.0 -I/usr/include/c++/9.1.0/x86_64-pc-linux-gnu -I/usr/include/c++/9.1.0/backward -I/usr/lib/gcc/x86_64-pc-linux-gnu/9.1.0/include -I/usr/local/include -I/usr/lib/gcc/x86_64-pc-linux-gnu/9.1.0/include-fixed -I/usr/include -I. -I.  -std=c++14  -Wall  -g  -O0  -Wall"
 }, {
  "file": "/home/joshua/software-dev/beginning-cpp-programming/Section8/MixedExpressionsAndConversions/main.cpp",
  "directory": "/home/joshua/software-dev/beginning-cpp-programming/Section8/MixedExpressionsAndConversions",
  "command": "clang  -c /home/joshua/software-dev/beginning-cpp-programming/Section8/MixedExpressionsAndConversions/main.cpp -o /home/joshua/software-dev/beginning-cpp-programming/Section8/MixedExpressionsAndConversions/main.cpp.o  -I/usr/include/c++/9.1.0 -I/usr/include/c++/9.1.0/x86_64-pc-linux-gnu -I/usr/include/c++/9.1.0/backward -I/usr/lib/gcc/x86_64-pc-linux-gnu/9.1.0/include -I/usr/local/include -I/usr/lib/gcc/x86_64-pc-linux-gnu/9.1.0/include-fixed -I/usr/include -I. -I.  -std=c++14  -Wall  -g  -O0  -Wall"
 }, {
  "file": "/home/joshua/software-dev/beginning-cpp-programming/Section8/IncrementDecrementOperators/main.cpp",
  "directory": "/home/joshua/software-dev/beginning-cpp-programming/Section8/IncrementDecrementOperators",
  "command": "clang  -c /home/joshua/software-dev/beginning-cpp-programming/Section8/IncrementDecrementOperators/main.cpp -o /home/joshua/software-dev/beginning-cpp-programming/Section8/IncrementDecrementOperators/main.cpp.o  -I/usr/include/c++/9.1.0 -I/usr/include/c++/9.1.0/x86_64-pc-linux-gnu -I/usr/include/c++/9.1.0/backward -I/usr/lib/gcc/x86_64-pc-linux-gnu/9.1.0/include -I/usr/local/include -I/usr/lib/gcc/x86_64-pc-linux-gnu/9.1.0/include-fixed -I/usr/include -I. -I.  -std=c++14  -Wall  -g  -O0  -Wall"
 }, {
  "file": "/home/joshua/software-dev/beginning-cpp-programming/Section8/AssignmentOperators/main.cpp",
  "directory": "/home/joshua/software-dev/beginning-cpp-programming/Section8/AssignmentOperators",
  "command": "clang  -c /home/joshua/software-dev/beginning-cpp-programming/Section8/AssignmentOperators/main.cpp -o /home/joshua/software-dev/beginning-cpp-programming/Section8/AssignmentOperators/main.cpp.o  -I/usr/include/c++/9.1.0 -I/usr/include/c++/9.1.0/x86_64-pc-linux-gnu -I/usr/include/c++/9.1.0/backward -I/usr/lib/gcc/x86_64-pc-linux-gnu/9.1.0/include -I/usr/local/include -I/usr/lib/gcc/x86_64-pc-linux-gnu/9.1.0/include-fixed -I/usr/include -I. -I.  -std=c++14  -Wall  -g  -O0  -Wall"
 }, {
  "file": "/home/joshua/software-dev/beginning-cpp-programming/Section8/ArithmeticOperators/main.cpp",
  "directory": "/home/joshua/software-dev/beginning-cpp-programming/Section8/ArithmeticOperators",
  "command": "clang  -c /home/joshua/software-dev/beginning-cpp-programming/Section8/ArithmeticOperators/main.cpp -o /home/joshua/software-dev/beginning-cpp-programming/Section8/ArithmeticOperators/main.cpp.o  -I/usr/include/c++/9.1.0 -I/usr/include/c++/9.1.0/x86_64-pc-linux-gnu -I/usr/include/c++/9.1.0/backward -I/usr/lib/gcc/x86_64-pc-linux-gnu/9.1.0/include -I/usr/local/include -I/usr/lib/gcc/x86_64-pc-linux-gnu/9.1.0/include-fixed -I/usr/include -I. -I.  -std=c++14  -Wall  -g  -O0  -Wall"
 }]