[{
  "file": "/home/joshua/software-dev/beginning-cpp-programming/Section12/References/main.cpp",
  "directory": "/home/joshua/software-dev/beginning-cpp-programming/Section12/References",
  "command": "clang  -c /home/joshua/software-dev/beginning-cpp-programming/Section12/References/main.cpp -o /home/joshua/software-dev/beginning-cpp-programming/Section12/References/main.cpp.o  -I/usr/include/c++/9.1.0 -I/usr/include/c++/9.1.0/x86_64-pc-linux-gnu -I/usr/include/c++/9.1.0/backward -I/usr/lib/gcc/x86_64-pc-linux-gnu/9.1.0/include -I/usr/local/include -I/usr/lib/gcc/x86_64-pc-linux-gnu/9.1.0/include-fixed -I/usr/include -I. -I.  -std=c++14  -Wall  -g  -O0  -Wall"
 }, {
  "file": "/home/joshua/software-dev/beginning-cpp-programming/Section12/PassingPointers3/main.cpp",
  "directory": "/home/joshua/software-dev/beginning-cpp-programming/Section12/PassingPointers3",
  "command": "clang  -c /home/joshua/software-dev/beginning-cpp-programming/Section12/PassingPointers3/main.cpp -o /home/joshua/software-dev/beginning-cpp-programming/Section12/PassingPointers3/main.cpp.o  -I/usr/include/c++/9.1.0 -I/usr/include/c++/9.1.0/x86_64-pc-linux-gnu -I/usr/include/c++/9.1.0/backward -I/usr/lib/gcc/x86_64-pc-linux-gnu/9.1.0/include -I/usr/local/include -I/usr/lib/gcc/x86_64-pc-linux-gnu/9.1.0/include-fixed -I/usr/include -I. -I.  -std=c++14  -Wall  -g  -O0  -Wall"
 }, {
  "file": "/home/joshua/software-dev/beginning-cpp-programming/Section12/PassingPointers1/main.cpp",
  "directory": "/home/joshua/software-dev/beginning-cpp-programming/Section12/PassingPointers1",
  "command": "clang  -c /home/joshua/software-dev/beginning-cpp-programming/Section12/PassingPointers1/main.cpp -o /home/joshua/software-dev/beginning-cpp-programming/Section12/PassingPointers1/main.cpp.o  -I/usr/include/c++/9.1.0 -I/usr/include/c++/9.1.0/x86_64-pc-linux-gnu -I/usr/include/c++/9.1.0/backward -I/usr/lib/gcc/x86_64-pc-linux-gnu/9.1.0/include -I/usr/local/include -I/usr/lib/gcc/x86_64-pc-linux-gnu/9.1.0/include-fixed -I/usr/include -I. -I.  -std=c++14  -Wall  -g  -O0  -Wall"
 }, {
  "file": "/home/joshua/software-dev/beginning-cpp-programming/Section12/Pointers/main.cpp",
  "directory": "/home/joshua/software-dev/beginning-cpp-programming/Section12/Pointers",
  "command": "clang  -c /home/joshua/software-dev/beginning-cpp-programming/Section12/Pointers/main.cpp -o /home/joshua/software-dev/beginning-cpp-programming/Section12/Pointers/main.cpp.o  -I/usr/include/c++/9.1.0 -I/usr/include/c++/9.1.0/x86_64-pc-linux-gnu -I/usr/include/c++/9.1.0/backward -I/usr/lib/gcc/x86_64-pc-linux-gnu/9.1.0/include -I/usr/local/include -I/usr/lib/gcc/x86_64-pc-linux-gnu/9.1.0/include-fixed -I/usr/include -I. -I.  -std=c++14  -Wall  -g  -O0  -Wall"
 }, {
  "file": "/home/joshua/software-dev/beginning-cpp-programming/Section12/ReturnPointer/main.cpp",
  "directory": "/home/joshua/software-dev/beginning-cpp-programming/Section12/ReturnPointer",
  "command": "clang  -c /home/joshua/software-dev/beginning-cpp-programming/Section12/ReturnPointer/main.cpp -o /home/joshua/software-dev/beginning-cpp-programming/Section12/ReturnPointer/main.cpp.o  -I/usr/include/c++/9.1.0 -I/usr/include/c++/9.1.0/x86_64-pc-linux-gnu -I/usr/include/c++/9.1.0/backward -I/usr/lib/gcc/x86_64-pc-linux-gnu/9.1.0/include -I/usr/local/include -I/usr/lib/gcc/x86_64-pc-linux-gnu/9.1.0/include-fixed -I/usr/include -I. -I.  -std=c++14  -Wall  -g  -O0  -Wall"
 }, {
  "file": "/home/joshua/software-dev/beginning-cpp-programming/Section12/DynamicMemory/main.cpp",
  "directory": "/home/joshua/software-dev/beginning-cpp-programming/Section12/DynamicMemory",
  "command": "clang  -c /home/joshua/software-dev/beginning-cpp-programming/Section12/DynamicMemory/main.cpp -o /home/joshua/software-dev/beginning-cpp-programming/Section12/DynamicMemory/main.cpp.o  -I/usr/include/c++/9.1.0 -I/usr/include/c++/9.1.0/x86_64-pc-linux-gnu -I/usr/include/c++/9.1.0/backward -I/usr/lib/gcc/x86_64-pc-linux-gnu/9.1.0/include -I/usr/local/include -I/usr/lib/gcc/x86_64-pc-linux-gnu/9.1.0/include-fixed -I/usr/include -I. -I.  -std=c++14  -Wall  -g  -O0  -Wall"
 }, {
  "file": "/home/joshua/software-dev/beginning-cpp-programming/Section12/DereferencingPointers/main.cpp",
  "directory": "/home/joshua/software-dev/beginning-cpp-programming/Section12/DereferencingPointers",
  "command": "clang  -c /home/joshua/software-dev/beginning-cpp-programming/Section12/DereferencingPointers/main.cpp -o /home/joshua/software-dev/beginning-cpp-programming/Section12/DereferencingPointers/main.cpp.o  -I/usr/include/c++/9.1.0 -I/usr/include/c++/9.1.0/x86_64-pc-linux-gnu -I/usr/include/c++/9.1.0/backward -I/usr/lib/gcc/x86_64-pc-linux-gnu/9.1.0/include -I/usr/local/include -I/usr/lib/gcc/x86_64-pc-linux-gnu/9.1.0/include-fixed -I/usr/include -I. -I.  -std=c++14  -Wall  -g  -O0  -Wall"
 }, {
  "file": "/home/joshua/software-dev/beginning-cpp-programming/Section12/ArraysAndPointers/main.cpp",
  "directory": "/home/joshua/software-dev/beginning-cpp-programming/Section12/ArraysAndPointers",
  "command": "clang  -c /home/joshua/software-dev/beginning-cpp-programming/Section12/ArraysAndPointers/main.cpp -o /home/joshua/software-dev/beginning-cpp-programming/Section12/ArraysAndPointers/main.cpp.o  -I/usr/include/c++/9.1.0 -I/usr/include/c++/9.1.0/x86_64-pc-linux-gnu -I/usr/include/c++/9.1.0/backward -I/usr/lib/gcc/x86_64-pc-linux-gnu/9.1.0/include -I/usr/local/include -I/usr/lib/gcc/x86_64-pc-linux-gnu/9.1.0/include-fixed -I/usr/include -I. -I.  -std=c++14  -Wall  -g  -O0  -Wall"
 }, {
  "file": "/home/joshua/software-dev/beginning-cpp-programming/Section12/PointerArithmetic/main.cpp",
  "directory": "/home/joshua/software-dev/beginning-cpp-programming/Section12/PointerArithmetic",
  "command": "clang  -c /home/joshua/software-dev/beginning-cpp-programming/Section12/PointerArithmetic/main.cpp -o /home/joshua/software-dev/beginning-cpp-programming/Section12/PointerArithmetic/main.cpp.o  -I/usr/include/c++/9.1.0 -I/usr/include/c++/9.1.0/x86_64-pc-linux-gnu -I/usr/include/c++/9.1.0/backward -I/usr/lib/gcc/x86_64-pc-linux-gnu/9.1.0/include -I/usr/local/include -I/usr/lib/gcc/x86_64-pc-linux-gnu/9.1.0/include-fixed -I/usr/include -I. -I.  -std=c++14  -Wall  -g  -O0  -Wall"
 }]